{
  "name": "ScoraRoleAccess",
  "options": {
    "idInjection": false,
    "mysql": {
      "schema": "devScora",
      "table": "SCORA_ROLE_ACCESS"
    },
    "relations": {
     }
  },
  "properties": {
    "roleAccessId": {
      "type": "Number",
      "id": 1,
      "required": true,
      "length": null,
      "precision": 10,
      "scale": 0,
      "mysql": {
        "columnName": "role_access_id",
        "dataType": "int",
        "dataLength": null,
        "dataPrecision": 10,
        "dataScale": 0,
        "nullable": "N"
      }
    },
    "roleCode": {
      "type": "String",
      "required": true,
      "length": 16,
      "precision": null,
      "scale": null,
      "mysql": {
        "columnName": "role_code",
        "dataType": "varchar",
        "dataLength": 16,
        "dataPrecision": null,
        "dataScale": null,
        "nullable": "N"
      }
    },
     "accessLevel": {
      "type": "Number",
      "required": true,
      "length": null,
      "precision": 10,
      "scale": 0,
      "mysql": {
        "columnName": "access_level",
        "dataType": "int",
        "dataLength": null,
        "dataPrecision": 10,
        "dataScale": 0,
        "nullable": "N"
      }
    },
    "description": {
      "type": "String",
      "required": false,
      "length": 100,
      "precision": null,
      "scale": null,
      "mysql": {
        "columnName": "description",
        "dataType": "varchar",
        "dataLength": 100,
        "dataPrecision": null,
        "dataScale": null,
        "nullable": "Y"
      }
    }
  },
  "validations": [],
  "relations": {},
  "acls": [],
  "methods": {}
}
