{
  "_meta": {
    "sources": [
      "loopback/common/models",
      "loopback/server/models",
      "../common/models",
      "./models"
    ],
    "mixins": [
      "loopback/common/mixins",
      "loopback/server/mixins",
      "../common/mixins",
      "./mixins"
    ]
  },
  "User": {
    "dataSource": "db",
    "public": false
  },
  "AccessToken": {
    "dataSource": "db",
    "public": true
  },
  "ACL": {
    "dataSource": "db",
    "public": false
  },
  "RoleMapping": {
    "dataSource": "db",
    "public": false,
    "options": {
      "strictObjectIDCoercion": true
    }
  },
  "Role": {
    "dataSource": "db",
    "public": false
  },
  "Campus": {
    "dataSource": "ScoraXChangeDB",
    "public": true
  },
  "University": {
    "dataSource": "ScoraXChangeDB",
    "public": true
  },
  "Country": {
    "dataSource": "ScoraXChangeDB",
    "public": true
  },
  "State": {
    "dataSource": "ScoraXChangeDB",
    "public": true
  },
  "City": {
    "dataSource": "ScoraXChangeDB",
    "public": true
  },
  "PostalCode": {
    "dataSource": "ScoraXChangeDB",
    "public": true
  },
  "Address": {
    "dataSource": "ScoraXChangeDB",
    "public": true
  },
  "CampusAddress": {
    "dataSource": "ScoraXChangeDB",
    "public": true
  },
  "CampusContact": {
    "dataSource": "ScoraXChangeDB",
    "public": true
  },
  "Contact": {
    "dataSource": "ScoraXChangeDB",
    "public": true
  },
  "Company": {
    "dataSource": "ScoraXChangeDB",
    "public": true
  },
  "CompanyAddress": {
    "dataSource": "ScoraXChangeDB",
    "public": true
  },
  "CompanyContact": {
    "dataSource": "ScoraXChangeDB",
    "public": true
  },
  "Department": {
    "dataSource": "ScoraXChangeDB",
    "public": true
  },
  "DepartmentAddress": {
    "dataSource": "ScoraXChangeDB",
    "public": true
  },
  "DepartmentContact": {
    "dataSource": "ScoraXChangeDB",
    "public": true
  },
  "Organization": {
    "dataSource": "ScoraXChangeDB",
    "public": true
  },
  "LookupType": {
    "dataSource": "ScoraXChangeDB",
    "public": true
  },
  "LookupValue": {
    "dataSource": "ScoraXChangeDB",
    "public": true
  },
  "OrganizationAddress": {
    "dataSource": "ScoraXChangeDB",
    "public": true
  },
  "OrganizationContact": {
    "dataSource": "ScoraXChangeDB",
    "public": true
  },
  "EducationPerson": {
    "dataSource": "ScoraXChangeDB",
    "public": true
  },
  "EducationPersonAddress": {
    "dataSource": "ScoraXChangeDB",
    "public": true
  },
  "EducationPersonContact": {
    "dataSource": "ScoraXChangeDB",
    "public": true
  },
  "EmployerPerson": {
    "dataSource": "ScoraXChangeDB",
    "public": true
  },
  "EmployerPersonAddress": {
    "dataSource": "ScoraXChangeDB",
    "public": true
  },
  "EmployerPersonContact": {
    "dataSource": "ScoraXChangeDB",
    "public": true
  },
  "Program": {
    "dataSource": "ScoraXChangeDB",
    "public": true
  },
  "ProgramContact": {
    "dataSource": "ScoraXChangeDB",
    "public": true
  },
  "CompensationPackage": {
    "dataSource": "ScoraXChangeDB",
    "public": true
  },
  "ScoraUser": {
    "dataSource": "ScoraXChangeDB",
    "public": true
  },
  "CompensationPackageItem": {
    "dataSource": "ScoraXChangeDB",
    "public": true
  },
  "JobRole": {
    "dataSource": "ScoraXChangeDB",
    "public": true
  },
  "ScoraRole": {
    "dataSource": "ScoraXChangeDB",
    "public": true
  },
  "EmployerCampusListHdr": {
    "dataSource": "ScoraXChangeDB",
    "public": true
  },
  "EmployerCampusListCompPkg": {
    "dataSource": "ScoraXChangeDB",
    "public": true
  },
  "EmployerCampusListDtl": {
    "dataSource": "ScoraXChangeDB",
    "public": true
  },
  "CampusDrive": {
    "dataSource": "ScoraXChangeDB",
    "public": true
  },
  "EmployerDrive": {
    "dataSource": "ScoraXChangeDB",
    "public": true
  },
  "EmployerEvent": {
    "dataSource": "ScoraXChangeDB",
    "public": true
  },
  "EmployerEventPanel": {
    "dataSource": "ScoraXChangeDB",
    "public": true
  },
  "Currency": {
    "dataSource": "ScoraXChangeDB",
    "public": true
  },
  "NotificationDetails": {
    "dataSource": "ScoraXChangeDB",
    "public": true
  },
  "NotificationEvents": {
    "dataSource": "ScoraXChangeDB",
    "public": true
  },
  "NotificationEventsUserPreferences": {
    "dataSource": "ScoraXChangeDB",
    "public": true
  },
  "NotificationMessageTemplates": {
    "dataSource": "ScoraXChangeDB",
    "public": true
  },
  "Student": {
    "dataSource": "ScoraXChangeDB",
    "public": true
  },
  "StudentAddress": {
    "dataSource": "ScoraXChangeDB",
    "public": true
  },
  "StudentContact": {
    "dataSource": "ScoraXChangeDB",
    "public": true
  },
  "StudentSkills": {
    "dataSource": "ScoraXChangeDB",
    "public": true
  },
  "StudentInterests": {
    "dataSource": "ScoraXChangeDB",
    "public": true
  },
  "StudentAttributes": {
    "dataSource": "ScoraXChangeDB",
    "public": true
  },
  "MassUser": {
    "dataSource": "ScoraXChangeDB",
    "public": true
  },
  "UserRole": {
    "dataSource": "ScoraXChangeDB",
    "public": true
  },
  "StudentsMassUploadWork": {
    "dataSource": "ScoraXChangeDB",
    "public": true
  },
  "Enrollment": {
    "dataSource": "ScoraXChangeDB",
    "public": true
  },
  "EventTestScoreWork": {
    "dataSource": "ScoraXChangeDB",
    "public": true
  },
  "EventTestScore": {
    "dataSource": "ScoraXChangeDB",
    "public": true
  },
  "FieldLabel": {
    "dataSource": "ScoraXChangeDB",
    "public": true
  },
  "CampusPlacementAggregatesWork": {
    "dataSource": "ScoraXChangeDB",
    "public": true
  },
  "CampusPlacementAggregates": {
    "dataSource": "ScoraXChangeDB",
    "public": true
  },
  "CampusEvent": {
    "dataSource": "ScoraXChangeDB",
    "public": true
  },
  "StudentAdditionalInfo": {
    "dataSource": "ScoraXChangeDB",
    "public": true
  },
  "Assessment": {
    "dataSource": "ScoraXChangeDB",
    "public": true
  },
  "UnregisterCampusStudent": {
    "dataSource": "ScoraXChangeDB",
    "public": true
  },
  "StudentMissingProgramWork": {
    "dataSource": "ScoraXChangeDB",
    "public": true
  },
  "CampusSearchVw": {
    "dataSource": "ScoraXChangeDB",
    "public": true
  },
  "EventStudentList": {
    "dataSource": "ScoraXChangeDB",
    "public": true
  },
  "EmployerDriveCampuses": {
    "dataSource": "ScoraXChangeDB",
    "public": true
  },
  "ScoraEmail": {
    "dataSource": "ScoraXChangeDB",
    "public": true
  },
  "CompanyUploadLog": {
    "dataSource": "ScoraXChangeDB",
    "public": true
  },
  "ScoraUserRole":{
    "dataSource": "ScoraXChangeDB",
    "public": true
  },
  "UnregisterCampusStudentWork":{
    "dataSource": "ScoraXChangeDB",
    "public": true
  },
  "OffCampusStudentSearchVw":{
    "dataSource": "ScoraXChangeDB",
    "public": true
  },
  "CompanySearchVw":{
    "dataSource": "ScoraXChangeDB",
    "public": true
  },
  "CampusEventStudentSearchVw":{
    "dataSource": "ScoraXChangeDB",
    "public": true
  },
  "Email": {
    "dataSource": "emailDs"
  },
  "ScoraServices": {
    "dataSource": "ScoraXChangeDB",
    "public": true
  },
  "ScoraRolePrivileges": {
    "dataSource": "ScoraXChangeDB",
    "public": true
  },
  "StudentsAssessmentUploadWork": {
    "dataSource": "ScoraXChangeDB",
    "public": true
  },
  "CompanyHiringAggregates": {
    "dataSource": "ScoraXChangeDB",
    "public": true
  },
  "CompanyHiringAggregatesWork": {
    "dataSource": "ScoraXChangeDB",
    "public": true
  },
  "CampusPlacementAggregatesVw": {
    "dataSource": "ScoraXChangeDB",
    "public": true
  },
  "ScoraServicePrivileges": {
    "dataSource": "ScoraXChangeDB",
    "public": true
  },
  "CampusSrchProgSkillIntVw": {
    "dataSource": "ScoraXChangeDB",
    "public": true
  },
  "Attachment": {
    "dataSource": "amazonupload",
    "public": true
  },
  "CampusUploadLog":{
    "dataSource": "ScoraXChangeDB",
    "public": true
  },
  "MessageDtl":{
    "dataSource": "ScoraXChangeDB",
    "public": true
  },
  "ScoraRoleAccess" : {
    "dataSource": "ScoraXChangeDB",
    "public": true
  }
}
